%YAML 1.1
%TAG !u! tag:unity3d.com,2011:
--- !u!114 &11400000
MonoBehaviour:
  m_ObjectHideFlags: 0
  m_CorrespondingSourceObject: {fileID: 0}
  m_PrefabInternal: {fileID: 0}
  m_GameObject: {fileID: 0}
  m_Enabled: 1
  m_EditorHideFlags: 0
  m_Script: {fileID: 11500000, guid: db0ca05ba3304104fa043847bddc25b2, type: 3}
  m_Name: Physic
  m_EditorClassIdentifier: 
  groundLayer:
    serializedVersion: 2
    m_Bits: 131072
  collidersLayer:
    serializedVersion: 2
    m_Bits: 196608
  obstaclesLayer:
    serializedVersion: 2
    m_Bits: 196609
  PlatformLayer:
    serializedVersion: 2
    m_Bits: 65536
  groundAnchor: {x: 0, y: 0}
  groundDistance: 0.3
  groundAnchorsOffset: 1
  fallThreshold: 0
  adjustGravity: 1
  fallCorrection: 3.5
  lowJumpCorrection: 3
  adjustFriction: 1
  frictionCorrection: 300
  debug: 0
