%YAML 1.1
%TAG !u! tag:unity3d.com,2011:
--- !u!114 &11400000
MonoBehaviour:
  m_ObjectHideFlags: 0
  m_CorrespondingSourceObject: {fileID: 0}
  m_PrefabInternal: {fileID: 0}
  m_GameObject: {fileID: 0}
  m_Enabled: 1
  m_EditorHideFlags: 0
  m_Script: {fileID: 11500000, guid: 9f71500a85f720f4bb0340fbab35ccc7, type: 3}
  m_Name: CameraMove
  m_EditorClassIdentifier: 
  Offset: {x: 0, y: 0.5, z: -10}
  FollowSpeed: 10
  DeadZoneRange: {x: 0, y: 5}
  minHorizontalDistance: 1
  maxHorizontalDistance: 15
  minVerticalDistance: 0
  maxVerticalDistance: 5
  minZoom: 1.5
  maxZoom: 3
  zoomSpeed: 1
  horizontalRatio:
    serializedVersion: 2
    m_Curve:
    - serializedVersion: 3
      time: 0
      value: 0.0014038086
      inSlope: -0.05482382
      outSlope: -0.05482382
      tangentMode: 0
      weightedMode: 0
      inWeight: 0
      outWeight: 0.15568021
    - serializedVersion: 3
      time: 1
      value: 1
      inSlope: 0.073763154
      outSlope: 0.073763154
      tangentMode: 0
      weightedMode: 0
      inWeight: 0.1542778
      outWeight: 0
    m_PreInfinity: 2
    m_PostInfinity: 2
    m_RotationOrder: 4
  verticalRatio:
    serializedVersion: 2
    m_Curve:
    - serializedVersion: 3
      time: 0
      value: 0
      inSlope: 0.2812899
      outSlope: 0.2812899
      tangentMode: 0
      weightedMode: 0
      inWeight: 0
      outWeight: 0.06583428
    - serializedVersion: 3
      time: 1
      value: 1
      inSlope: 2.939937
      outSlope: 2.939937
      tangentMode: 0
      weightedMode: 0
      inWeight: 0.022701502
      outWeight: 0
    m_PreInfinity: 2
    m_PostInfinity: 2
    m_RotationOrder: 4
  canShake: 1
  shakeIntensity: 0.1
  shakeTime: 0.4
  shakeStep: 0.005
  canFocus: 0
  FocusSpeed: 0
  ZoomRatio: 0
  FocusDuration: 0
  debug: 0
